{
  "project_info": {
    "project_number": "510619178543",
    "project_id": "mtn-appacademy",
    "storage_bucket": "mtn-appacademy.appspot.com"
  },
  "client": [
    {
      "client_info": {
        "mobilesdk_app_id": "1:510619178543:android:a5da79c50003d4cb2b18da",
        "android_client_info": {
          "package_name": "com.example.module3"
        }
      },
      "oauth_client": [
        {
          "client_id": "510619178543-mgg93446cfsiorfdch5duajrmbo35ar9.apps.googleusercontent.com",
          "client_type": 3
        }
      ],
      "api_key": [
        {
          "current_key": "AIzaSyBWQQhl57NGXC0G7W9_1YRq44lRaM5Mya0"
        }
      ],
      "services": {
        "appinvite_service": {
          "other_platform_oauth_client": [
            {
              "client_id": "510619178543-mgg93446cfsiorfdch5duajrmbo35ar9.apps.googleusercontent.com",
              "client_type": 3
            }
          ]
        }
      }
    }
  ],
  "configuration_version": "1"
}